Anatoly Tsyplenkov - Tidy Tuesday NHL
…
Okay, here it is. My first contribution to the my website. I’ll try to make a very quick and simple data exploration analysis for this weeks’ Tidy Tuesday. There are three datasets available. I’m not sure that I’ll be able to analyze all of them… Let’s start from the first top_250.

Code

library(tidyverse)
library(atslib)
library(extrafont)
library(hrbrthemes)
theme_set(hrbrthemes::theme_ft_rc(base_family = "Ubuntu Condensed"))

top_250 <- readr::read_csv('https://raw.githubusercontent.com/rfordatascience/tidytuesday/master/data/2020/2020-03-03/top_250.csv')

top_250

# A tibble: 251 × 9
   raw_rank player        years   total_g…¹ url_n…² raw_l…³ link  active yr_st…⁴
      <dbl> <chr>         <chr>       <dbl>   <dbl> <chr>   <chr> <chr>    <dbl>
 1        1 Wayne Gretzky 1979-99       894       1 /playe… http… Retir…    1979
 2        2 Gordie Howe   1946-80       801       2 /playe… http… Retir…    1946
 3        3 Jaromir Jagr  1990-18       766       3 /playe… http… Retir…    1990
 4        4 Brett Hull    1986-06       741       4 /playe… http… Retir…    1986
 5        5 Marcel Dionne 1971-89       731       5 /playe… http… Retir…    1971
 6        6 Phil Esposito 1963-81       717       6 /playe… http… Retir…    1963
 7        7 Mike Gartner  1979-98       708       7 /playe… http… Retir…    1979
 8        8 Alex Ovechkin 2005-20       700       8 /playe… http… Active    2005
 9        9 Mark Messier  1979-04       694       9 /playe… http… Retir…    1979
10       10 Steve Yzerman 1983-06       692      10 /playe… http… Retir…    1983
# … with 241 more rows, and abbreviated variable names ¹​total_goals,
#   ²​url_number, ³​raw_link, ⁴​yr_start
# ℹ Use `print(n = ...)` to see more rows
…
tidy_250

# A tibble: 251 × 4
   player        total_goals year_start year_end
   <chr>               <dbl>      <dbl>    <dbl>
 1 Wayne Gretzky         894       1979     1999
 2 Gordie Howe           801       1946     1980
 3 Jaromir Jagr          766       1990     2018
 4 Brett Hull            741       1986     2006
 5 Marcel Dionne         731       1971     1989
 6 Phil Esposito         717       1963     1981
 7 Mike Gartner          708       1979     1998
 8 Alex Ovechkin         700       2005     2020
 9 Mark Messier          694       1979     2004
10 Steve Yzerman         692       1983     2006
# … with 241 more rows
# ℹ Use `print(n = ...)` to see more rows
…
